#FIG 3.2  Produced by xfig version 3.2.7a
Portrait
Center
Metric
A4
100.00
Single
-2
1200 2
2 1 1 1 0 7 50 -1 -1 4.000 0 0 -1 0 0 2
	 4050 2925 5580 2925
2 2 0 1 0 9 54 -1 36 0.000 0 0 -1 0 0 5
	 450 1350 4050 1350 4050 2475 450 2475 450 1350
2 2 0 0 0 9 51 -1 32 0.000 0 0 -1 0 0 5
	 540 1530 1080 1530 1080 1710 540 1710 540 1530
2 2 0 0 0 9 51 -1 32 0.000 0 0 -1 0 0 5
	 1260 1530 1800 1530 1800 1710 1260 1710 1260 1530
2 2 0 0 0 9 51 -1 32 0.000 0 0 -1 0 0 5
	 2700 1530 3240 1530 3240 1710 2700 1710 2700 1530
2 2 0 0 0 9 51 -1 32 0.000 0 0 -1 0 0 5
	 3420 1530 3960 1530 3960 1710 3420 1710 3420 1530
2 2 0 0 0 9 51 -1 32 0.000 0 0 -1 0 0 5
	 1980 1530 2520 1530 2520 1710 1980 1710 1980 1530
2 2 0 0 0 12 52 -1 34 0.000 0 0 -1 0 0 5
	 1980 1980 2520 1980 2520 2160 1980 2160 1980 1980
2 2 0 0 0 12 52 -1 34 0.000 0 0 -1 0 0 5
	 2700 1980 3240 1980 3240 2160 2700 2160 2700 1980
2 2 0 0 0 12 52 -1 34 0.000 0 0 -1 0 0 5
	 3420 1980 3960 1980 3960 2160 3420 2160 3420 1980
2 2 0 0 0 12 52 -1 34 0.000 0 0 -1 0 0 5
	 1980 2205 3960 2205 3960 2385 1980 2385 1980 2205
2 2 0 1 0 12 53 -1 38 0.000 0 0 -1 0 0 5
	 1890 1800 4050 1800 4050 2475 1890 2475 1890 1800
2 2 0 1 0 21 53 -1 36 0.000 0 0 -1 0 0 5
	 450 2475 4050 2475 4050 2925 450 2925 450 2475
2 2 0 0 0 21 51 -1 32 0.000 0 0 -1 0 0 5
	 540 2655 1620 2655 1620 2835 540 2835 540 2655
2 2 0 0 0 21 51 -1 32 0.000 0 0 -1 0 0 5
	 1710 2655 2790 2655 2790 2835 1710 2835 1710 2655
2 2 0 0 0 21 51 -1 32 0.000 0 0 -1 0 0 5
	 2880 2655 3960 2655 3960 2835 2880 2835 2880 2655
2 2 0 0 0 4 51 -1 34 0.000 0 0 -1 0 0 5
	 1980 3375 2520 3375 2520 3555 1980 3555 1980 3375
2 2 0 0 0 4 51 -1 34 0.000 0 0 -1 0 0 5
	 540 3150 3960 3150 3960 3330 540 3330 540 3150
2 2 0 0 0 4 51 -1 34 0.000 0 0 -1 0 0 5
	 540 3600 3960 3600 3960 3780 540 3780 540 3600
2 2 0 0 0 4 51 -1 34 0.000 0 0 7 0 0 5
	 2700 3780 3240 3780 3240 3960 2700 3960 2700 3780
2 2 0 0 0 4 51 -1 34 0.000 0 0 7 0 0 5
	 540 3375 1080 3375 1080 3555 540 3555 540 3375
2 2 0 0 0 4 51 -1 34 0.000 0 0 7 0 0 5
	 1260 3375 1800 3375 1800 3555 1260 3555 1260 3375
2 2 0 0 0 4 51 -1 34 0.000 0 0 7 0 0 5
	 2700 3375 3240 3375 3240 3555 2700 3555 2700 3375
2 2 0 0 0 4 51 -1 34 0.000 0 0 7 0 0 5
	 3420 3375 3960 3375 3960 3555 3420 3555 3420 3375
2 2 0 0 0 4 51 -1 34 0.000 0 0 7 0 0 5
	 540 3780 1080 3780 1080 3960 540 3960 540 3780
2 2 0 0 0 4 51 -1 34 0.000 0 0 7 0 0 5
	 1260 3780 1800 3780 1800 3960 1260 3960 1260 3780
2 2 0 0 0 4 51 -1 34 0.000 0 0 7 0 0 5
	 1980 3780 2520 3780 2520 3960 1980 3960 1980 3780
2 2 0 0 0 4 51 -1 34 0.000 0 0 7 0 0 5
	 3420 3780 3960 3780 3960 3960 3420 3960 3420 3780
2 2 0 1 0 4 53 -1 38 0.000 0 0 -1 0 0 5
	 450 2925 4050 2925 4050 4050 450 4050 450 2925
2 2 0 0 0 0 55 -1 20 0.000 0 0 -1 0 0 5
	 495 1395 4095 1395 4095 4095 495 4095 495 1395
3 0 0 1 0 7 50 -1 -1 0.000 0 0 0 6
	 4230 2880 4275 2880 4275 2835 4275 2385 4275 2340 4320 2340
	 0.000 1.000 1.000 1.000 1.000 0.000
3 0 0 1 0 7 50 -1 -1 0.000 0 0 0 6
	 4230 1845 4275 1845 4275 1890 4275 2295 4275 2340 4320 2340
	 0.000 1.000 1.000 1.000 1.000 0.000
3 0 0 1 0 7 50 -1 -1 0.000 0 0 0 6
	 4230 1350 4275 1350 4275 1395 4275 1530 4275 1575 4320 1575
	 0.000 1.000 1.000 1.000 1.000 0.000
3 0 0 1 0 7 50 -1 -1 0.000 0 0 0 6
	 4230 1800 4275 1800 4275 1755 4275 1620 4275 1575 4320 1575
	 0.000 1.000 1.000 1.000 1.000 0.000
3 0 0 1 0 7 50 -1 -1 0.000 0 0 0 6
	 4230 2970 4275 2970 4275 3015 4275 3465 4275 3510 4320 3510
	 0.000 1.000 1.000 1.000 1.000 0.000
3 0 0 1 0 7 50 -1 -1 0.000 0 0 0 6
	 4230 4050 4275 4050 4275 4005 4275 3555 4275 3510 4320 3510
	 0.000 1.000 1.000 1.000 1.000 0.000
4 2 0 50 -1 17 6 0.0000 4 90 780 5535 2790 mode utilisateur\001
4 2 0 50 -1 17 6 0.0000 4 105 870 5535 3105 mode superviseur\001
4 1 0 50 -1 16 8 0.0000 4 135 750 2250 1485 Applications\001
4 1 0 50 -1 20 6 0.0000 4 90 480 810 1665 Commandes\001
4 1 0 50 -1 20 6 0.0000 4 90 225 1530 1665 Shells\001
4 1 0 50 -1 20 6 0.0000 4 105 435 2250 1665 Applis KDE\001
4 1 0 50 -1 20 6 0.0000 4 105 540 2970 1665 Applis Gnome\001
4 1 0 50 -1 20 6 0.0000 4 90 405 2250 2115 Biblis KDE\001
4 1 0 50 -1 20 6 0.0000 4 90 510 2970 2115 Biblis Gnome\001
4 1 0 50 -1 20 6 0.0000 4 90 315 3690 2115 Biblis ...\001
4 1 0 50 -1 20 6 0.0000 4 105 345 3690 1665 Applis ...\001
4 1 0 50 -1 20 6 0.0000 4 105 195 2970 2340 Bibliothèques X11\001
4 1 0 50 -1 16 8 0.0000 4 135 375 2970 1935 Bibliothèques graphiques\001
4 1 0 50 -1 16 8 0.0000 4 135 375 2250 2610 Bibliothèques non graphiques\001
4 0 0 50 -1 16 8 0.0000 4 135 375 4365 2385 Bibliothèques\001
4 0 0 50 -1 16 8 0.0000 4 135 750 4365 1620 Applications\001
4 1 0 50 -1 20 6 0.0000 4 90 120 1080 2790 libc\001
4 1 0 50 -1 20 6 0.0000 4 90 150 2250 2790 libm\001
4 1 0 50 -1 20 6 0.0000 4 90 165 3420 2790 lib...\001
4 1 0 50 -1 16 8 0.0000 4 135 1200 2250 3060 Noyau Unix / Linux\001
4 1 0 50 -1 20 6 0.0000 4 120 315 2250 3285 Syscalls\001
4 1 0 50 -1 20 6 0.0000 4 90 405 2250 3510 Processus\001
4 1 0 50 -1 20 6 0.0000 4 105 315 2250 3735 Pilotes de périphériques\001
4 1 0 50 -1 20 6 0.0000 4 90 240 2970 3915 SATA\001
4 1 0 50 -1 20 6 0.0000 4 105 45 810 3510 Réseau\001
4 1 0 50 -1 20 6 0.0000 4 120 510 1530 3510 Syst Fichiers\001
4 1 0 50 -1 20 6 0.0000 4 105 285 2970 3510 Gestion mém\001
4 1 0 50 -1 20 6 0.0000 4 90 150 3690 3510 IPC\001
4 1 0 50 -1 20 6 0.0000 4 90 165 810 3915 Disk\001
4 1 0 50 -1 20 6 0.0000 4 90 210 1530 3915 SCSI\001
4 1 0 50 -1 20 6 0.0000 4 90 150 2250 3915 PCI\001
4 1 0 50 -1 20 6 0.0000 4 15 90 3690 3915 ...\001
4 0 0 50 -1 16 8 0.0000 4 135 405 4365 3555 Noyau\001
